Simulated multi-channel media spend dataset — mrmopt_data • mrmopt
…
Paid Social: Logistic curve, ~$27k/week average spend.

Display: Gompertz curve, ~$18k/week average spend.

Online Video: Logistic curve, ~$34k/week average spend.

TV: Log-Logistic curve, ~$80k/week average spend.

The dataset is generated by data-raw/mrmopt_data.R.

    Examples

data(mrmopt_data)
mrmopt_data
#> # A tibble: 520 × 4
#>    channel     week       spend conversions
#>    <fct>       <date>     <dbl>       <int>
#>  1 Paid Search 2023-01-02 46306         616
#>  2 Paid Search 2023-01-09 38396         171
#>  3 Paid Search 2023-01-16 41434         334
#>  4 Paid Search 2023-01-23 46644         687
#>  5 Paid Search 2023-01-30 37157         166
#>  6 Paid Search 2023-02-06 47482         716
#>  7 Paid Search 2023-02-13 32331          45
#>  8 Paid Search 2023-02-20 28702          83
#>  9 Paid Search 2023-02-27 47682         739
#> 10 Paid Search 2023-03-06 48444         743
#> # ℹ 510 more rows
…
